INDEX VERSION 1.126+C:\Users\Karol\Documents\java\.metadata\.plugins\org.eclipse.jdt.core
1755913921.index
1269277382.index
3951094714.index
2265617865.index
1492968368.index
3383392487.index
3449116704.index
2474304018.index
249459504.index
919737581.index
882139543.index
2445747412.index
2164123280.index
1063230161.index
129829192.index
2585328351.index
4210772659.index
1910228820.index
52205867.index
